{
    "sw-cms": {
        "elements": {
            "customTeuVideoslider": {
                "label": "video slider",
                "config": {
                    "slides": {
                        "label": "Slides",
                        "fields": {
                            "name": {
                                "label": "Name",
                                "default": "Neuer Slide"
                            },
                            "active": {
                                "label": "Aktiv"
                            },
                            "player": {
                                "label": "Player",
                                "youtube": "Youtube",
                                "vimeo": "Vimo"
                            },
                            "title": {
                                "label": "Titel"
                            },
                            "text": {
                                "label": "Titel"
                            },
                            "buttonLink": {
                                "label": "Button Link",
                                "active": "Button Link aktivieren",
                                "link": "Link",
                                "newTab": "New Tab",
                                "buttonText": "Button Label"
                            }
                        },
                        "copy-slide": {
                            "suffix": "Kopie"
                        },
                        "add-slide": {
                            "label": "Slide hinzufügen"
                        }
                    },
                    "video": {
                        "label": "Video",
                        "fields": {
                            "controls": {
                                "label": "Controls anzeigen"
                            },
                            "loop": {
                                "label": "Loop Video"
                            },
                            "autoplay": {
                                "label": "Autoplay"
                            },
                            "mute": {
                                "label": "Mute"
                            },
                            "color": {
                                "label": "Farbe"
                            }
                        }
                    },
                    "text": {
                        "label": "Text",
                        "fields": {
                            "show": {
                                "label": "Text anzeigen"
                            },
                            "position": {
                                "label": "Text Positionierung",
                                "absolute": "Absolute",
                                "relative": "Relative"
                            },
                            "colSize": {
                                "label": "Col-md-size"
                            }
                        }
                    },
                    "general": {
                        "label": "Allgemein",
                        "fields": {
                            "mode": {
                                "label": "Mode",
                                "fade": "Fade",
                                "slide": "Slide"
                            },
                            "direction": {
                                "label": "Sliderichtung",
                                "vertical": "vertikal",
                                "horizontal": "horizontal"
                            },
                            "loop": {
                                "label": "Loop Video"
                            },
                            "rewind": {
                                "label": "Zurückspulen"
                            },
                            "autoheight": {
                                "label": "Autoheigt"
                            },
                            "drag": {
                                "label": "Mouse Drag"
                            }
                        }
                    },
                    "navigation": {
                        "label": "Navigation",
                        "fields": {
                            "controls": {
                                "label": "Controls",
                                "show": "Controls anzeigen",
                                "position": {
                                    "label": "Controls Position",
                                    "outside": "seitlich/außerhalb",
                                    "inside": "seitlich/innerhalb"
                                }
                            },
                            "nav": {
                                "label": "NavDots",
                                "show": "NavDots anzeigen",
                                "position": {
                                    "label": "NavDots Position",
                                    "outside": "außerhalb",
                                    "inside": "innerhalb",
                                    "thumb": "Thumbnails",
                                    "text": "Slidername als Dot"
                                }
                            }
                        }
                    }
                }
            },
            "customTeuHeroslider": {
                "label": "Hero slider",
                "config": {
                    "numberOfSlides": "Anzahl Slides",
                    "slidetitle": "Headline",
                    "slidecontents": "Text",
                    "activateLink": "Slide verlinken",
                    "link": "Link",
                    "btnText": "Button Text",
                    "slideDisable": "Slide deakivieren",
                    "sort": "Reihenfolge (optional)",
                    "sortPlaceholder": "z.B. 3,1,2"
                }
            },
            "customTeuArticleTab": {
                "label": "Artikel Tabs",
                "config": {
                    "numberOfTabs": "Anzahl Artikel",
                    "tabtitle": "Tab Titel (alternativ)",
                    "tabcontents": "Tab Inhalt (Kurztext)"
                }
            },
            "customTeuHotspot": {
                "label": "Hotspot",
                "config": {
                    "numberOfHotspots": "Anzahl Hotspots",
                    "hotspotactive": "aktiv",
                    "hotspottitle": "Titel",
                    "hotspotcontents": "Text",
                    "hotspotLinkText": "Linktext",
                    "hoverPos": "Hover Position",
                    "imagelabel": "Bild",
                    "color": "Hotspotfarbe",
                    "design": "Design"
                }
            }
        }
    }
}
